{
  "title": "Remote Desktop with mx-keys",
  "rules": [
    {
      "description": "remap for Microsoft Remote Desktop on Logitech MX Keys Mini: left_option to windows_logo",
      "manipulators": [
        {
          "type": "basic",
          "from": {
            "key_code": "left_option",
            "modifiers": {
              "optional": [
                "any"
              ]
            }
          },
          "to": [
            {
              "key_code": "left_gui"
            }
          ],
          "conditions": [
            {
              "type": "frontmost_application_if",
              "bundle_identifiers": [
                "com\\.microsoft\\.rdc\\.mac",
                "com\\.ericom\\.blazeclient"
              ]
            }
          ]
        }
        ]
    },
    {
        "description":"remap for Microsoft Remote Desktop on Logitech MX Keys Mini: left_command to left_option",
        "manipulators":[
            {
                "type": "basic",
                "from": {
                    "key_code": "left_command",
                    "modifiers":{
                        "optional":[
                            "any"
                        ]
                    }
                },
                "to":[
                    {
                        "key_code": "left_option"
                    }
                ],
                "conditions":[
                    {
                        "type": "frontmost_application_if",
                        "bundle_identifiers": [
                            "com\\.microsoft\\.rdc\\.mac",
                            "com\\.ericom\\.blazeclient"
                        ]
                    }
                ]
            }
        ]
    },
    {
        "description":"remap for Microsoft Remote Desktop on Logitech MX Keys Mini: right_command to alt_gr",
        "manipulators":[
            {
                "type": "basic",
                "from": {
                    "key_code": "right_command",
                    "modifiers":{
                        "optional":[
                            "any"
                        ]
                    }
                },
                "to":[
                    {
                        "key_code": "right_option"
                    }
                ],
                "conditions":[
                    {
                        "type": "frontmost_application_if",
                        "bundle_identifiers": [
                            "com\\.microsoft\\.rdc\\.mac",
                            "com\\.ericom\\.blazeclient"
                        ]
                    }
                ]
            }
        ]
    },
    {
        "description":"remap for Microsoft Remote Desktop on Logitech MX Keys Mini: right_option to right_control",
        "manipulators":[
            {
                "type": "basic",
                "from": {
                    "key_code": "right_option",
                    "modifiers":{
                        "optional":[
                            "any"
                        ]
                    }
                },
                "to":[
                    {
                        "key_code": "right_control"
                    }
                ],
                "conditions":[
                    {
                        "type": "frontmost_application_if",
                        "bundle_identifiers": [
                            "com\\.microsoft\\.rdc\\.mac",
                            "com\\.ericom\\.blazeclient"
                        ]
                    }
                ]
            }
        ]
    },
    {
        "description":"remap for Microsoft Remote Desktop on Logitech MX Keys Mini: 'non_us_backslash' to '@'",
        "manipulators":[
            {
                "type": "basic",
                "from": {
                    "key_code": "non_us_backslash",
                    "modifiers":{
                        "optional":[
                            "any"
                        ]
                    }
                },
                "to":[
                    {
                        "key_code": "0",
                        "modifiers":[
                            "right_option"
                        ]
                    }
                ],
                "conditions":[
                    {
                        "type": "frontmost_application_if",
                        "bundle_identifiers": [
                            "com\\.microsoft\\.rdc\\.mac",
                            "com\\.ericom\\.blazeclient"
                        ]
                    }
                ]
            }
        ]
    },
    {
        "description":"remap for Microsoft Remote Desktop on Logitech MX Keys Mini: 'non_us_backslash' + shift to '#'",
        "manipulators":[
            {
                "type": "basic",
                "from": {
                    "key_code": "non_us_backslash",
                    "modifiers":{
                        "mandatory":[
                            "shift"
                        ]
                    }
                },
                "to":[
                    {
                        "key_code": "3",
                        "modifiers":[
                            "right_option"
                        ]
                    }
                ],
                "conditions":[
                    {
                        "type": "frontmost_application_if",
                        "bundle_identifiers": [
                            "com\\.microsoft\\.rdc\\.mac",
                            "com\\.ericom\\.blazeclient"
                        ]
                    }
                ]
            }
        ]
    },
    {
        "description":"remap for Microsoft Remote Desktop on Logitech MX Keys Mini: '~' + alt_grd to '~'",
        "manipulators":[
            {
                "type": "basic",
                "from": {
                    "key_code": "2",
                    "modifiers":{
                        "mandatory":[
                            "right_command"
                        ]
                    }
                },
                "to":[
                    {
                        "key_code": "3",
                        "modifiers":[
                            "right_option"
                        ]
                    }
                ],
                "conditions":[
                    {
                        "type": "frontmost_application_if",
                        "bundle_identifiers": [
                            "com\\.microsoft\\.rdc\\.mac",
                            "com\\.ericom\\.blazeclient"
                        ]
                    }
                ]
            }
        ]
    },
    {
        "description":"remap for Microsoft Remote Desktop on Logitech MX Keys Mini: '<'",
        "manipulators":[
            {
                "type": "basic",
                "from": {
                    "key_code": "grave_accent_and_tilde"
                },
                "to":[
                    {
                        "key_code": "non_us_backslash"
                    }
                ],
                "conditions":[
                    {
                        "type": "frontmost_application_if",
                        "bundle_identifiers": [
                            "com\\.microsoft\\.rdc\\.mac",
                            "com\\.ericom\\.blazeclient"
                        ]
                    }
                ]
            }
        ]
    },
    {
        "description":"remap for Microsoft Remote Desktop on Logitech MX Keys Mini: '>'",
        "manipulators":[
            {
                "type": "basic",
                "from": {
                    "key_code": "grave_accent_and_tilde",
                    "modifiers":{
                        "mandatory":[
                            "shift"
                        ]
                    }
                },
                "to":[
                    {
                        "key_code": "non_us_backslash",
                        "modifiers":[
                            "shift"
                        ]
                    }
                ],
                "conditions":[
                    {
                        "type": "frontmost_application_if",
                        "bundle_identifiers": [
                            "com\\.microsoft\\.rdc\\.mac",
                            "com\\.ericom\\.blazeclient"
                        ]
                    }
                ]
            }
        ]
    },
    {
        "description":"remap for Microsoft Remote Desktop on Logitech MX Keys Mini: '£'",
        "manipulators":[
            {
                "type": "basic",
                "from": {
                    "key_code": "backslash",
                    "modifiers":{
                        "mandatory":[
                            "shift"
                        ]
                    }
                },
                "to":[
                    {
                        "key_code": "close_bracket",
                        "modifiers":[
                            "shift"
                        ]
                    }
                ],
                "conditions":[
                    {
                        "type": "frontmost_application_if",
                        "bundle_identifiers": [
                            "com\\.microsoft\\.rdc\\.mac",
                            "com\\.ericom\\.blazeclient"
                        ]
                    }
                ]
            }
        ]
    },
    {
        "description":"remap for Microsoft Remote Desktop on Logitech MX Keys Mini: '`'",
        "manipulators":[
            {
                "type": "basic",
                "from": {
                    "key_code": "backslash"
                },
                "to":[
                    {
                        "key_code": "7",
                        "modifiers":[
                            "right_option"
                        ]
                    }
                ],
                "conditions":[
                    {
                        "type": "frontmost_application_if",
                        "bundle_identifiers": [
                            "com\\.microsoft\\.rdc\\.mac",
                            "com\\.ericom\\.blazeclient"
                        ]
                    }
                ]
            }
        ]
    }
    ]
}
